-- Merging decision tree log ---
manifest
ADDED from D:\android\mistic-gems\launcher\src\main\AndroidManifest.xml:3:1-5:12
INJECTED from D:\android\mistic-gems\launcher\src\main\AndroidManifest.xml:3:1-5:12
INJECTED from D:\android\mistic-gems\launcher\src\main\AndroidManifest.xml:3:1-5:12
INJECTED from D:\android\mistic-gems\launcher\src\main\AndroidManifest.xml:3:1-5:12
INJECTED from D:\android\mistic-gems\launcher\src\main\AndroidManifest.xml:3:1-5:12
INJECTED from D:\android\mistic-gems\launcher\src\main\AndroidManifest.xml:3:1-5:12
INJECTED from D:\android\mistic-gems\launcher\src\main\AndroidManifest.xml:3:1-5:12
	package
		ADDED from D:\android\mistic-gems\launcher\src\main\AndroidManifest.xml:3:70-96
		INJECTED from D:\android\mistic-gems\launcher\src\main\AndroidManifest.xml
		INJECTED from D:\android\mistic-gems\launcher\src\main\AndroidManifest.xml
	android:versionName
		INJECTED from D:\android\mistic-gems\launcher\src\main\AndroidManifest.xml
		ADDED from D:\android\mistic-gems\launcher\src\main\AndroidManifest.xml:3:1-5:12
		INJECTED from D:\android\mistic-gems\launcher\src\main\AndroidManifest.xml
	xmlns:tools
		ADDED from D:\android\mistic-gems\launcher\src\main\AndroidManifest.xml:3:97-143
	android:versionCode
		INJECTED from D:\android\mistic-gems\launcher\src\main\AndroidManifest.xml
		ADDED from D:\android\mistic-gems\launcher\src\main\AndroidManifest.xml:3:1-5:12
		INJECTED from D:\android\mistic-gems\launcher\src\main\AndroidManifest.xml
	xmlns:android
		ADDED from D:\android\mistic-gems\launcher\src\main\AndroidManifest.xml:3:11-69
	android:installLocation
		ADDED from D:\android\mistic-gems\launcher\src\main\AndroidManifest.xml:3:144-184
supports-screens
ADDED from D:\android\mistic-gems\launcher\src\main\AndroidManifest.xml:4:3-163
	android:largeScreens
		ADDED from D:\android\mistic-gems\launcher\src\main\AndroidManifest.xml:4:78-105
	android:smallScreens
		ADDED from D:\android\mistic-gems\launcher\src\main\AndroidManifest.xml:4:21-48
	android:normalScreens
		ADDED from D:\android\mistic-gems\launcher\src\main\AndroidManifest.xml:4:49-77
	android:xlargeScreens
		ADDED from D:\android\mistic-gems\launcher\src\main\AndroidManifest.xml:4:106-134
	android:anyDensity
		ADDED from D:\android\mistic-gems\launcher\src\main\AndroidManifest.xml:4:135-160
uses-sdk
INJECTED from D:\android\mistic-gems\launcher\src\main\AndroidManifest.xml reason: use-sdk injection requested
INJECTED from D:\android\mistic-gems\launcher\src\main\AndroidManifest.xml
INJECTED from D:\android\mistic-gems\launcher\src\main\AndroidManifest.xml
INJECTED from D:\android\mistic-gems\launcher\src\main\AndroidManifest.xml
INJECTED from D:\android\mistic-gems\launcher\src\main\AndroidManifest.xml
	android:targetSdkVersion
		INJECTED from D:\android\mistic-gems\launcher\src\main\AndroidManifest.xml
		ADDED from D:\android\mistic-gems\launcher\src\main\AndroidManifest.xml
		INJECTED from D:\android\mistic-gems\launcher\src\main\AndroidManifest.xml
	android:minSdkVersion
		INJECTED from D:\android\mistic-gems\launcher\src\main\AndroidManifest.xml
		ADDED from D:\android\mistic-gems\launcher\src\main\AndroidManifest.xml
		INJECTED from D:\android\mistic-gems\launcher\src\main\AndroidManifest.xml
